{
    "Bach, Johann Sebastian": [
        {
            "Print Number": 0,
            "Composer": [
                {
                    "name": "Bach, Johann Sebastian",
                    "born": 1685,
                    "died": 1750
                }
            ],
            "Title": "Christmass Oratorio",
            "Genre": "cantata",
            "Key": "C",
            "Composition Year": 1728,
            "Edition": "Barenreiter",
            "Editor": [
                {
                    "name": "xy"
                }
            ],
            "Voices": [
                {
                    "name": "g-d3, violin,  part"
                },
                {
                    "name": "C2-c, cello, part"
                },
                {
                    "name": "c-e3, cis"
                }
            ],
            "Partiture": "no",
            "Incipit": "treble 2/4 c4 d8 e8 |"
        },
        {
            "Print Number": 111,
            "Composer": [
                {
                    "name": "Bach, Johann Sebastian",
                    "born": 1685,
                    "died": 1750
                }
            ],
            "Title": "Konzert für Violine und Oboe oder zwei Violinen",
            "Key": "c",
            "Voices": [
                {
                    "name": "violine 1"
                },
                {
                    "name": "violine 2"
                },
                {
                    "name": "piano reduction"
                }
            ],
            "Partiture": "no"
        },
        {
            "Print Number": 139,
            "Composer": [
                {
                    "name": "Bach, Johann Sebastian",
                    "born": 1685,
                    "died": 1750
                }
            ],
            "Title": "Sei Lob und Ehr dem höchsten Gut BWV117",
            "Genre": "kantáta",
            "Key": "G",
            "Edition": "Breitkopf & Härtel",
            "Voices": [
                {
                    "name": "oboe II, oboe d'amore II"
                }
            ],
            "Partiture": "no"
        },
        {
            "Print Number": 175,
            "Composer": [
                {
                    "name": "Bach, Johann Sebastian",
                    "born": 1685,
                    "died": 1750
                }
            ],
            "Title": "Weinen, Klagen, Sorgen, Zagen BWV12",
            "Genre": "cantate",
            "Voices": [
                {
                    "name": "oboe"
                },
                {
                    "name": "oboe (tiefer Kammerton)"
                }
            ],
            "Partiture": "yes"
        },
        {
            "Print Number": 206,
            "Composer": [
                {
                    "name": "Bach, Johann Sebastian",
                    "born": 1685,
                    "died": 1750
                }
            ],
            "Title": "Herr, gehe nicht ins Gericht mit deinem Knecht (BWV105, zum 9. Sonntag nach Trinitatis)",
            "Genre": "cantate",
            "Key": "c",
            "Edition": "2014",
            "Editor": [
                {
                    "name": "Markus Müller"
                }
            ],
            "Voices": [
                {
                    "name": "oboe 1"
                }
            ],
            "Partiture": "yes"
        },
        {
            "Print Number": 213,
            "Composer": [
                {
                    "name": "Bach, Johann Sebastian",
                    "born": 1685,
                    "died": 1750
                }
            ],
            "Title": "Air",
            "Voices": [
                {
                    "name": "violin 1"
                }
            ],
            "Partiture": "no"
        },
        {
            "Print Number": 219,
            "Composer": [
                {
                    "name": "Bach, Johann Sebastian",
                    "born": 1685,
                    "died": 1750
                }
            ],
            "Title": "Magnificat BWV243",
            "Genre": "solo, orchestra, choir",
            "Key": "D",
            "Voices": [
                {
                    "name": "oboe 1"
                },
                {
                    "name": "oboe 2"
                }
            ],
            "Partiture": "no"
        },
        {
            "Print Number": 220,
            "Composer": [
                {
                    "name": "Bach, Johann Sebastian",
                    "born": 1685,
                    "died": 1750
                }
            ],
            "Title": "St Mathew's passion BWV244",
            "Genre": "solo, orchestra, choir",
            "Voices": [
                {
                    "name": "oboe 1 orchestra 1"
                },
                {
                    "name": "oboe 2 orchestra 1"
                },
                {
                    "name": "oboe 1 orchestra 2"
                },
                {
                    "name": "oboe 2 orchestra 2"
                },
                {
                    "name": "text"
                }
            ],
            "Partiture": "no"
        },
        {
            "Print Number": 242,
            "Composer": [
                {
                    "name": "Bach, Johann Sebastian",
                    "born": 1685,
                    "died": 1750
                }
            ],
            "Title": "Ich habe genug, BWV82",
            "Genre": "cantate for bass, oboe, strings, continuo",
            "Voices": [
                {
                    "name": "oboe"
                }
            ],
            "Partiture": "no"
        },
        {
            "Print Number": 254,
            "Composer": [
                {
                    "name": "Bach, Johann Sebastian",
                    "born": 1685,
                    "died": 1750
                }
            ],
            "Title": "Contrapunctus 14 & 15 (Kunst der Fuge)",
            "Genre": "2 voice",
            "Voices": [
                {}
            ],
            "Partiture": "yes"
        },
        {
            "Print Number": 320,
            "Composer": [
                {
                    "name": "Bach, Johann Sebastian",
                    "born": 1685,
                    "died": 1750
                }
            ],
            "Title": "Inventio II",
            "Genre": "harpsichord",
            "Key": "d",
            "Edition": "facsiile",
            "Voices": [
                {}
            ],
            "Partiture": "no"
        },
        {
            "Print Number": 340,
            "Composer": [
                {
                    "name": "Bach, Johann Sebastian",
                    "born": 1685,
                    "died": 1750
                }
            ],
            "Title": "Ein Herz, das seinen Jesum lebend weiss (no. 134, BWV134) am dritten Ostertag",
            "Genre": "cantate",
            "Edition": "Breitkopf & Härtel",
            "Voices": [
                {},
                {
                    "name": "oboe 2"
                }
            ],
            "Partiture": "yes"
        },
        {
            "Print Number": 345,
            "Composer": [
                {
                    "name": "Bach, Johann Sebastian",
                    "born": 1685,
                    "died": 1750
                }
            ],
            "Title": "Concerto for 2 violins, BWV1043",
            "Genre": "double concerto for 2 violins",
            "Key": "d",
            "Edition": "Breitkopf",
            "Editor": [
                {
                    "name": "Friedrich Spiro"
                }
            ],
            "Voices": [
                {
                    "name": "violin 1"
                },
                {
                    "name": "violin 2"
                },
                {
                    "name": "2 violins and piano arrangement"
                }
            ],
            "Partiture": "no"
        },
        {
            "Print Number": 421,
            "Composer": [
                {
                    "name": "Bach, Johann Sebastian",
                    "born": 1685,
                    "died": 1750
                }
            ],
            "Title": "Orchestral Suite no. 1, BWV1066",
            "Genre": "orchestra",
            "Key": "C",
            "Voices": [
                {
                    "name": "oboe primo"
                }
            ],
            "Partiture": "yes"
        },
        {
            "Print Number": 422,
            "Composer": [
                {
                    "name": "Bach, Johann Sebastian",
                    "born": 1685,
                    "died": 1750
                }
            ],
            "Title": "Orchestral Suite no. 4, BWV1069",
            "Genre": "orchestra",
            "Key": "D",
            "Voices": [
                {
                    "name": "oboe 1"
                },
                {
                    "name": "oboe 2"
                },
                {
                    "name": "oboe 3"
                }
            ],
            "Partiture": "no"
        },
        {
            "Print Number": 426,
            "Composer": [
                {
                    "name": "Bach, Johann Sebastian",
                    "born": 1685,
                    "died": 1750
                }
            ],
            "Title": "Ein Herz, das seinen Jesum lebend weiss, BWV134",
            "Genre": "cantate",
            "Key": "Bes",
            "Editor": [
                {
                    "name": "Philip Eames"
                }
            ],
            "Voices": [
                {},
                {
                    "name": "oboe 2"
                }
            ],
            "Partiture": "no"
        },
        {
            "Print Number": 427,
            "Composer": [
                {
                    "name": "Bach, Johann Sebastian",
                    "born": 1685,
                    "died": 1750
                }
            ],
            "Title": "Schwingt freudig euch empor, BWV36, am ersten Advent",
            "Genre": "cantate",
            "Key": "F",
            "Edition": "Breitkopf & Härtel",
            "Voices": [
                {},
                {
                    "name": "oboe d'amore 2 + text"
                }
            ],
            "Partiture": "yes"
        },
        {
            "Print Number": 428,
            "Composer": [
                {
                    "name": "Bach, Johann Sebastian",
                    "born": 1685,
                    "died": 1750
                }
            ],
            "Title": "Gelobet seist du, Jesu Christ, BWV91, zum 1. weihnachtstag",
            "Genre": "cantate",
            "Edition": "Bärenreiter",
            "Voices": [
                {
                    "name": "oboe 3"
                }
            ],
            "Partiture": "no"
        },
        {
            "Print Number": 431,
            "Composer": [
                {
                    "name": "Bach, Johann Sebastian",
                    "born": 1685,
                    "died": 1750
                }
            ],
            "Title": "St. John's Passion, BWV245",
            "Genre": "orchestra",
            "Voices": [
                {
                    "name": "oboe 1"
                },
                {
                    "name": "oboe 2"
                }
            ],
            "Partiture": "no"
        },
        {
            "Print Number": 434,
            "Composer": [
                {
                    "name": "Bach, Johann Sebastian",
                    "born": 1685,
                    "died": 1750
                }
            ],
            "Title": "aria for soprano, oboe and continuo Seufzer, Thränen, Kummer, Noth from BWV21",
            "Genre": "cantate",
            "Key": "c",
            "Voices": [
                {}
            ],
            "Partiture": "yes"
        },
        {
            "Print Number": 449,
            "Composer": [
                {
                    "name": "Bach, Johann Sebastian",
                    "born": 1685,
                    "died": 1750
                }
            ],
            "Title": "Gott der Herr ist Sonn und Schild BWV79",
            "Genre": "cantate",
            "Voices": [
                {
                    "name": "oboe (incomplete)"
                },
                {
                    "name": "text"
                }
            ],
            "Partiture": "yes"
        },
        {
            "Print Number": 450,
            "Composer": [
                {
                    "name": "Bach, Johann Sebastian",
                    "born": 1685,
                    "died": 1750
                }
            ],
            "Title": "Jesu, der du meine Seele, BWV78",
            "Genre": "cantate",
            "Voices": [
                {
                    "name": "oboe (incomplete)"
                },
                {
                    "name": "text"
                }
            ],
            "Partiture": "yes"
        },
        {
            "Print Number": 451,
            "Composer": [
                {
                    "name": "Bach, Johann Sebastian",
                    "born": 1685,
                    "died": 1750
                }
            ],
            "Title": "Alles nur nach Gottes Willen, BWV72",
            "Genre": "cantate",
            "Voices": [
                {
                    "name": "oboe (incomplete)"
                },
                {
                    "name": "text"
                }
            ],
            "Partiture": "yes"
        },
        {
            "Print Number": 454,
            "Composer": [
                {
                    "name": "Bach, Johann Sebastian",
                    "born": 1685,
                    "died": 1750
                }
            ],
            "Title": "Wie schön leuchet der Morgenstern, BWV1, am feste Mariae Verkündigung",
            "Genre": "cantate",
            "Edition": "The Cathedral Brass",
            "Editor": [
                {
                    "name": "Michel Rondeau"
                }
            ],
            "Voices": [
                {
                    "name": "caccia 1"
                }
            ],
            "Partiture": "no"
        },
        {
            "Print Number": 456,
            "Composer": [
                {
                    "name": "Bach, Johann Sebastian",
                    "born": 1685,
                    "died": 1750
                }
            ],
            "Title": "Endlich, endlich aria from BWV56 (Ich will den Kreuzstab gerne tragen)",
            "Genre": "cantate",
            "Voices": [
                {
                    "name": "oboe 1"
                }
            ],
            "Partiture": "yes"
        },
        {
            "Print Number": 487,
            "Composer": [
                {
                    "name": "Bach, Johann Sebastian",
                    "born": 1685,
                    "died": 1750
                }
            ],
            "Title": "aria Ruhig und insich zufrieden from cantate BWV204",
            "Genre": "cantate (soprano, 2 oboes and continuo)",
            "Key": "g",
            "Voices": [
                {}
            ],
            "Partiture": "yes"
        },
        {
            "Print Number": 516,
            "Composer": [
                {
                    "name": "Bach, Johann Sebastian",
                    "born": 1685,
                    "died": 1750
                }
            ],
            "Title": "Ich will den Kreuzstab gerne tragen BWV56, cantate bass solo, choir and orchestra",
            "Genre": "cantate",
            "Key": "g",
            "Voices": [
                {
                    "name": "oboe 1"
                },
                {
                    "name": "oboe 2"
                }
            ],
            "Partiture": "no"
        },
        {
            "Print Number": 517,
            "Composer": [
                {
                    "name": "Bach, Johann Sebastian",
                    "born": 1685,
                    "died": 1750
                }
            ],
            "Title": "Sei Lob und Ehr dem höchsten Gut, BWV117",
            "Genre": "cantate",
            "Key": "G",
            "Voices": [
                {
                    "name": "oboe 1 and oboe d'amore 1"
                }
            ],
            "Partiture": "no"
        },
        {
            "Print Number": 518,
            "Composer": [
                {
                    "name": "Bach, Johann Sebastian",
                    "born": 1685,
                    "died": 1750
                }
            ],
            "Title": "Ein feste Burg ist unser Gott, BWV80, am Reformationsfest",
            "Genre": "cantate",
            "Key": "D",
            "Voices": [
                {
                    "name": "oboe 1"
                },
                {
                    "name": "oboe d'amore 1"
                },
                {
                    "name": "oboe 2"
                },
                {
                    "name": "oboe d'amore 2"
                },
                {
                    "name": "text"
                }
            ],
            "Partiture": "no"
        },
        {
            "Print Number": 519,
            "Composer": [
                {
                    "name": "Bach, Johann Sebastian",
                    "born": 1685,
                    "died": 1750
                }
            ],
            "Title": "Geist und Seele wird vermwirret, BWV35",
            "Genre": "cantate",
            "Key": "d",
            "Voices": [
                {
                    "name": "oboe 1"
                },
                {
                    "name": "oboe 2"
                }
            ],
            "Partiture": "yes"
        },
        {
            "Print Number": 521,
            "Composer": [
                {
                    "name": "Bach, Johann Sebastian",
                    "born": 1685,
                    "died": 1750
                }
            ],
            "Title": "First Brandenburg, 2nd movement",
            "Genre": "orchestra",
            "Key": "d",
            "Voices": [
                {}
            ],
            "Partiture": "yes"
        },
        {
            "Print Number": 525,
            "Composer": [
                {
                    "name": "Bach, Johann Sebastian",
                    "born": 1685,
                    "died": 1750
                }
            ],
            "Title": "arie for soprano and obligato violin Wenn die Frühlingslüfte streichen from Hochzeitskantate Weichet nur, betrübte Schatten, BWV202",
            "Genre": "cantate",
            "Key": "e",
            "Editor": [
                {
                    "name": "Eusebius Mandyczewski"
                }
            ],
            "Voices": [
                {
                    "name": "violin"
                }
            ],
            "Partiture": "no"
        },
        {
            "Print Number": 526,
            "Composer": [
                {
                    "name": "Bach, Johann Sebastian",
                    "born": 1685,
                    "died": 1750
                }
            ],
            "Title": "Weichet nur betrübte Schatten, BWV202 for soprano, oboe and continuo from J. S. Bach: Complete arias & sinfonias",
            "Genre": "cantate",
            "Key": "G",
            "Edition": "Musica Rara",
            "Voices": [
                {
                    "name": "oboe"
                },
                {
                    "name": "continuo"
                }
            ],
            "Partiture": "no"
        },
        {
            "Print Number": 539,
            "Composer": [
                {
                    "name": "Bach, Johann Sebastian",
                    "born": 1685,
                    "died": 1750
                }
            ],
            "Title": "Jesus bleibet meine Freunde, BWV147",
            "Genre": "cantate",
            "Key": "G",
            "Edition": "annedeblois",
            "Voices": [
                {
                    "name": "violin 1 (oboe ad lib.)"
                }
            ],
            "Partiture": "no"
        },
        {
            "Print Number": 542,
            "Composer": [
                {
                    "name": "Bach, Johann Sebastian",
                    "born": 1685,
                    "died": 1750
                }
            ],
            "Title": "Orchestral Suite no. 3, BWV1068",
            "Genre": "orchestra",
            "Key": "D",
            "Voices": [
                {
                    "name": "oboe 1"
                },
                {
                    "name": "oboe 2"
                }
            ],
            "Partiture": "no"
        },
        {
            "Print Number": 545,
            "Composer": [
                {
                    "name": "Bach, Johann Sebastian",
                    "born": 1685,
                    "died": 1750
                }
            ],
            "Title": "Weichet nur, betrübte Schatten, BWV202",
            "Genre": "cantate",
            "Voices": [
                {
                    "name": "oboe"
                }
            ],
            "Partiture": "yes"
        },
        {
            "Print Number": 550,
            "Composer": [
                {
                    "name": "Bach, Johann Sebastian",
                    "born": 1685,
                    "died": 1750
                }
            ],
            "Title": "Herr, wie du willt, so schick's mit mir, BWV73, Sunday 3 after Epiphany",
            "Genre": "cantate",
            "Key": "Bes",
            "Composition Year": 1723,
            "Voices": [
                {
                    "name": "oboe 1 and 2 (incomplete, solo aria)"
                },
                {
                    "name": "text"
                }
            ],
            "Partiture": "yes"
        },
        {
            "Print Number": 556,
            "Composer": [
                {
                    "name": "Bach, Johann Sebastian",
                    "born": 1685,
                    "died": 1750
                }
            ],
            "Title": "Ein feste Burg ist unser Gott, BWV80",
            "Genre": "cantate",
            "Key": "D",
            "Voices": [
                {
                    "name": "oboe and oboe da caccia (solo arias)"
                },
                {
                    "name": "text"
                }
            ],
            "Partiture": "yes"
        },
        {
            "Print Number": 574,
            "Composer": [
                {
                    "name": "Bach, Johann Sebastian",
                    "born": 1685,
                    "died": 1750
                }
            ],
            "Title": "Sich üben im Lieben from Hochzeitskantate Weichet nur betrübte Schatten BWV202",
            "Genre": "cantate, aria for soprano, oboe and continuo",
            "Voices": [
                {
                    "name": "soprano and oboe"
                }
            ],
            "Partiture": "no"
        },
        {
            "Print Number": 654,
            "Composer": [
                {
                    "name": "Bach, Johann Sebastian",
                    "born": 1685,
                    "died": 1750
                }
            ],
            "Title": "Christmas Oratorio BWV248",
            "Genre": "cantate",
            "Edition": "Breitkopf & Härtel",
            "Voices": [
                {
                    "name": "Oboe & Oboe d'amore 1"
                },
                {
                    "name": "Oboe & Oboe d'amore 2"
                },
                {
                    "name": "Oboe da caccia 1"
                },
                {
                    "name": "Oboe da caccia 2"
                }
            ],
            "Partiture": "no"
        },
        {
            "Print Number": 655,
            "Composer": [
                {
                    "name": "Bach, Johann Sebastian",
                    "born": 1685,
                    "died": 1750
                }
            ],
            "Title": "Christmas Oratorio BWV248",
            "Genre": "cantate",
            "Voices": [
                {
                    "name": "Oboe & Oboe d'amore 1 Teil 1"
                },
                {
                    "name": "Oboe & Oboe d'amore 1 Teil 2"
                },
                {
                    "name": "Oboe & Oboe d'amore 1 Teil 3"
                },
                {
                    "name": "Oboe & Oboe d'amore 1 Teil 4"
                },
                {
                    "name": "Oboe & Oboe d'amore 1 Teil 5"
                },
                {
                    "name": "Oboe & Oboe d'amore 1 Teil 6"
                },
                {
                    "name": "Oboe 1 Teil 1"
                },
                {
                    "name": "Oboe da caccia 1 Teil 2"
                },
                {
                    "name": "Oboe 1 Teil 3"
                },
                {
                    "name": "Oboe & Oboe d'amore 2 Teil 1"
                },
                {
                    "name": "Oboe & Oboe d'amore 2 Teil 2"
                },
                {
                    "name": "Oboe & Oboe d'amore 2 Teil 3"
                },
                {
                    "name": "Oboe & Oboe d'amore 2 Teil 4"
                },
                {
                    "name": "Oboe & Oboe d'amore 2 Teil 5"
                },
                {
                    "name": "Oboe & Oboe d'amore 2 Teil 6"
                },
                {
                    "name": "Oboe 2 Teil 1"
                },
                {
                    "name": "Oboe da caccia 2 Teil 2"
                },
                {
                    "name": "Oboe 2 Teil 3"
                },
                {
                    "name": "Text Teil 1"
                },
                {
                    "name": "Text Teil 2"
                }
            ],
            "Partiture": "no"
        },
        {
            "Print Number": 656,
            "Composer": [
                {
                    "name": "Bach, Johann Sebastian",
                    "born": 1685,
                    "died": 1750
                }
            ],
            "Title": "Christmas Oratorio BWV248",
            "Genre": "oboe & oboe d'amore orchestra excerpts",
            "Edition": "Crozzoli",
            "Voices": [
                {}
            ],
            "Partiture": "no"
        },
        {
            "Print Number": 689,
            "Composer": [
                {
                    "name": "Bach, Johann Sebastian",
                    "born": 1685,
                    "died": 1750
                }
            ],
            "Title": "Concerto III",
            "Genre": "harpsichord",
            "Key": "d",
            "Voices": [
                {}
            ],
            "Partiture": "yes"
        },
        {
            "Print Number": 703,
            "Composer": [
                {
                    "name": "Bach, Johann Sebastian",
                    "born": 1685,
                    "died": 1750
                }
            ],
            "Title": "Bourrée",
            "Genre": "harpsichord",
            "Key": "a",
            "Voices": [
                {}
            ],
            "Partiture": "yes"
        },
        {
            "Print Number": 729,
            "Composer": [
                {
                    "name": "Bach, Johann Sebastian",
                    "born": 1685,
                    "died": 1750
                }
            ],
            "Title": "Gott, wir danken deiner Güte BWV193/3",
            "Genre": "cantate, oboe (incomplete)",
            "Key": "G",
            "Edition": "Musica Rara",
            "Voices": [
                {
                    "name": "oboe"
                }
            ],
            "Partiture": "no"
        },
        {
            "Print Number": 730,
            "Composer": [
                {
                    "name": "Bach, Johann Sebastian",
                    "born": 1685,
                    "died": 1750
                }
            ],
            "Title": "Nun, du wirst mein Gewissen stillen BWV78/6",
            "Genre": "cantate, oboe (incomplete)",
            "Key": "g",
            "Edition": "Musica Rara",
            "Voices": [
                {
                    "name": "oboe"
                }
            ],
            "Partiture": "no"
        },
        {
            "Print Number": 731,
            "Composer": [
                {
                    "name": "Bach, Johann Sebastian",
                    "born": 1685,
                    "died": 1750
                }
            ],
            "Title": "Quoniam tu solus sanctus BWV236/5",
            "Genre": "mass, oboe (incomplete)",
            "Key": "e",
            "Edition": "Musica Rara",
            "Voices": [
                {
                    "name": "oboe"
                }
            ],
            "Partiture": "no"
        },
        {
            "Print Number": 732,
            "Composer": [
                {
                    "name": "Bach, Johann Sebastian",
                    "born": 1685,
                    "died": 1750
                }
            ],
            "Title": "Gott versorget, alles Leben BWV187/5",
            "Genre": "mass, oboe (incomplete)",
            "Key": "c",
            "Edition": "Musica Rara",
            "Voices": [
                {
                    "name": "oboe"
                }
            ],
            "Partiture": "no"
        },
        {
            "Print Number": 733,
            "Composer": [
                {
                    "name": "Bach, Johann Sebastian",
                    "born": 1685,
                    "died": 1750
                }
            ],
            "Title": "Qui tollis peccata mundi, BWV233/4",
            "Genre": "mass, oboe (incomplete)",
            "Key": "g",
            "Edition": "Musica Rara",
            "Voices": [
                {}
            ],
            "Partiture": "no"
        },
        {
            "Print Number": 734,
            "Composer": [
                {
                    "name": "Bach, Johann Sebastian",
                    "born": 1685,
                    "died": 1750
                }
            ],
            "Title": "Dein Leib, das Manna meiner Seele BWV246/13",
            "Genre": "cantate, oboe (incomplete)",
            "Key": "Bes",
            "Edition": "Musica Rara",
            "Voices": [
                {
                    "name": "oboe"
                }
            ],
            "Partiture": "no"
        },
        {
            "Print Number": 735,
            "Composer": [
                {
                    "name": "Bach, Johann Sebastian",
                    "born": 1685,
                    "died": 1750
                }
            ],
            "Title": "Mein Jesu soll mein alles sein, BWV75/3",
            "Genre": "cantate, oboe (incomplete)",
            "Key": "G",
            "Edition": "Musica Rara",
            "Voices": [
                {
                    "name": "oboe"
                }
            ],
            "Partiture": "no"
        },
        {
            "Print Number": 736,
            "Composer": [
                {
                    "name": "Bach, Johann Sebastian",
                    "born": 1685,
                    "died": 1750
                }
            ],
            "Title": "Ich habe meine Zuversicht, BWV188/1",
            "Genre": "cantate, oboe (incomplete)",
            "Key": "F",
            "Edition": "Musica Rara",
            "Voices": [
                {
                    "name": "oboe"
                }
            ],
            "Partiture": "no"
        },
        {
            "Print Number": 737,
            "Composer": [
                {
                    "name": "Bach, Johann Sebastian",
                    "born": 1685,
                    "died": 1750
                }
            ],
            "Title": "Qui tollis peccata mundi",
            "Genre": "mass, oboe (incomplete)",
            "Key": "c",
            "Edition": "Musica Rara",
            "Voices": [
                {
                    "name": "oboe"
                }
            ],
            "Partiture": "no"
        },
        {
            "Print Number": 738,
            "Composer": [
                {
                    "name": "Bach, Johann Sebastian",
                    "born": 1685,
                    "died": 1750
                }
            ],
            "Title": "Ich will an den Himmel denken",
            "Genre": "cantate, oboe (incomplete)",
            "Key": "g",
            "Edition": "Musica Rara",
            "Voices": [
                {
                    "name": "oboe"
                }
            ],
            "Partiture": "no"
        },
        {
            "Print Number": 742,
            "Composer": [
                {
                    "name": "Bach, Johann Sebastian",
                    "born": 1685,
                    "died": 1750
                }
            ],
            "Title": "Wer nur den lieben Gott lässt walten BWV93/6",
            "Genre": "cantate (incomplete) for soprano, oboe and continuo",
            "Key": "g",
            "Edition": "bachsoboe.de",
            "Editor": [
                {
                    "name": "Markus Müller"
                }
            ],
            "Voices": [
                {
                    "name": "oboe 1"
                }
            ],
            "Partiture": "yes"
        },
        {
            "Print Number": 743,
            "Composer": [
                {
                    "name": "Bach, Johann Sebastian",
                    "born": 1685,
                    "died": 1750
                }
            ],
            "Title": "Was Gott tut, das ist wohlgetan BWV98/3",
            "Genre": "cantate (incomplete) for soprano, oboe and continuo",
            "Key": "c",
            "Edition": "bachsoboe.de",
            "Editor": [
                {
                    "name": "Markus Müller"
                }
            ],
            "Voices": [
                {
                    "name": "oboe 1"
                }
            ],
            "Partiture": "yes"
        },
        {
            "Print Number": 744,
            "Composer": [
                {
                    "name": "Bach, Johann Sebastian",
                    "born": 1685,
                    "died": 1750
                }
            ],
            "Title": "Concerto in F",
            "Genre": "oboe concerto",
            "Key": "F",
            "Edition": "Nova Music",
            "Editor": [
                {
                    "name": "R. P. Block"
                }
            ],
            "Voices": [
                {
                    "name": "oboe solo"
                },
                {
                    "name": "piano reduction"
                }
            ],
            "Partiture": "no"
        },
        {
            "Print Number": 745,
            "Composer": [
                {
                    "name": "Bach, Johann Sebastian",
                    "born": 1685,
                    "died": 1750
                }
            ],
            "Title": "Partita g minor for oboe solo (from BWV1013)",
            "Genre": "arrangement oboe solo",
            "Key": "g",
            "Editor": [
                {
                    "name": "Hagen Wangenheim"
                }
            ],
            "Voices": [
                {}
            ],
            "Partiture": "yes"
        },
        {
            "Print Number": 754,
            "Composer": [
                {
                    "name": "Bach, Johann Sebastian",
                    "born": 1685,
                    "died": 1750
                }
            ],
            "Title": "Polonéza (Knižočka Anny Magdalény Bachovej, no. 16)",
            "Genre": "piano",
            "Key": "d",
            "Edition": "modern",
            "Voices": [
                {}
            ],
            "Partiture": "yes"
        },
        {
            "Print Number": 755,
            "Composer": [
                {
                    "name": "Bach, Johann Sebastian",
                    "born": 1685,
                    "died": 1750
                }
            ],
            "Title": "Malé prelúdiá no. 3, BWV927",
            "Genre": "piano",
            "Key": "F",
            "Edition": "modern",
            "Voices": [
                {}
            ],
            "Partiture": "yes"
        },
        {
            "Print Number": 759,
            "Composer": [
                {
                    "name": "Bach, Johann Sebastian",
                    "born": 1685,
                    "died": 1750
                }
            ],
            "Title": "Christmas oratorio, recitativo no. 61",
            "Genre": "recitativo tenor, 2 oboe d'amore and continuo",
            "Key": "D",
            "Voices": [
                {}
            ],
            "Partiture": "yes"
        },
        {
            "Print Number": 760,
            "Composer": [
                {
                    "name": "Bach, Johann Sebastian",
                    "born": 1685,
                    "died": 1750
                }
            ],
            "Title": "Christmas oratorio, recitativo no. 3",
            "Genre": "recitativo alto, 2 oboe d'amore and continuo",
            "Key": "A",
            "Voices": [
                {}
            ],
            "Partiture": "yes"
        },
        {
            "Print Number": 772,
            "Composer": [
                {
                    "name": "Bach, Johann Sebastian",
                    "born": 1685,
                    "died": 1750
                }
            ],
            "Title": "Dvojhlasné invencie, trojhlasné invencie",
            "Genre": "harpsichord",
            "Edition": "Opus",
            "Editor": [
                {
                    "name": "Vilém Kurz"
                }
            ],
            "Voices": [
                {}
            ],
            "Partiture": "yes"
        },
        {
            "Print Number": 773,
            "Composer": [
                {
                    "name": "Bach, Johann Sebastian",
                    "born": 1685,
                    "died": 1750
                }
            ],
            "Title": "Malé prelúdiá a Fugety",
            "Genre": "harpsichord",
            "Edition": "Opus",
            "Editor": [
                {
                    "name": "Vilém Kurz"
                }
            ],
            "Voices": [
                {}
            ],
            "Partiture": "yes"
        },
        {
            "Print Number": 777,
            "Composer": [
                {
                    "name": "Bach, Johann Sebastian",
                    "born": 1685,
                    "died": 1750
                }
            ],
            "Title": "Sechs Partiten",
            "Genre": "harpsichord",
            "Composition Year": 1731,
            "Edition": "urtext, Henle Verlag",
            "Editor": [
                {
                    "name": "Rudolf Steglich"
                }
            ],
            "Voices": [
                {}
            ],
            "Partiture": "yes"
        },
        {
            "Print Number": 783,
            "Composer": [
                {
                    "name": "Bach, Johann Sebastian",
                    "born": 1685,
                    "died": 1750
                }
            ],
            "Title": "Es ist euch gut, dass ich hingehe BWV108",
            "Genre": "cantate oboe d'amore, bass, strings, continuo (incomplete)",
            "Key": "A",
            "Voices": [
                {
                    "name": "oboe d'amore"
                }
            ],
            "Partiture": "yes"
        },
        {
            "Print Number": 784,
            "Composer": [
                {
                    "name": "Bach, Johann Sebastian",
                    "born": 1685,
                    "died": 1750
                }
            ],
            "Title": "Bereitet die Wege, bereitet die Bahn! BWV132/1",
            "Genre": "soprano, oboe d'amore, strings and continuo (incomplete)",
            "Key": "A",
            "Voices": [
                {
                    "name": "oboe d'amore (non transposed)"
                }
            ],
            "Partiture": "no"
        },
        {
            "Print Number": 797,
            "Composer": [
                {
                    "name": "Bach, Johann Sebastian",
                    "born": 1685,
                    "died": 1750
                }
            ],
            "Title": "Cantata Aus tiefer Not BWV 38/3",
            "Genre": "cantata",
            "Key": "a",
            "Edition": "modern",
            "Voices": [
                {}
            ],
            "Partiture": "yes"
        },
        {
            "Print Number": 798,
            "Composer": [
                {
                    "name": "Bach, Johann Sebastian",
                    "born": 1685,
                    "died": 1750
                }
            ],
            "Title": "Cantata Aus tiefer Not BWV 38",
            "Genre": "cantata",
            "Key": "a",
            "Edition": "bachsoboe.de",
            "Editor": [
                {
                    "name": "Markus Müller"
                }
            ],
            "Voices": [
                {},
                {
                    "name": "oboe 2 (incomplete)"
                }
            ],
            "Partiture": "no"
        },
        {
            "Print Number": 800,
            "Composer": [
                {
                    "name": "Bach, Johann Sebastian",
                    "born": 1685,
                    "died": 1750
                }
            ],
            "Title": "aria Ich folge dir gleichfalls (Johannes Passion BWV245)",
            "Genre": "aria soprano, traverso, continuo",
            "Key": "Bes",
            "Voices": [
                {}
            ],
            "Partiture": "yes"
        },
        {
            "Print Number": 806,
            "Composer": [
                {
                    "name": "Bach, Johann Sebastian",
                    "born": 1685,
                    "died": 1750
                }
            ],
            "Title": "cantata Mit Fried und Freud (BWV125)",
            "Genre": "cantata",
            "Key": "e",
            "Voices": [
                {
                    "name": "corno (incomplete)"
                }
            ],
            "Partiture": "no"
        },
        {
            "Print Number": 808,
            "Composer": [
                {
                    "name": "Bach, Johann Sebastian",
                    "born": 1685,
                    "died": 1750
                }
            ],
            "Title": "Sonate G moll BWV1030b",
            "Genre": "transcription sonata oboe obligato harpsichord",
            "Key": "g",
            "Edition": "Henry Litolff's Verlag (Peters)",
            "Editor": [
                {
                    "name": "Raymond Meylan"
                }
            ],
            "Voices": [
                {}
            ],
            "Partiture": "yes"
        },
        {
            "Print Number": 851,
            "Composer": [
                {
                    "name": "Bach, Johann Sebastian",
                    "born": 1685,
                    "died": 1750
                }
            ],
            "Title": "Applicatio in C dur aus dem Clavierbüchlein für Wilhelm Friedemann Bach",
            "Genre": "harpsichord",
            "Key": "C",
            "Edition": "modern",
            "Voices": [
                {}
            ],
            "Partiture": "yes"
        },
        {
            "Print Number": 856,
            "Composer": [
                {
                    "name": "Bach, Johann Sebastian",
                    "born": 1685,
                    "died": 1750
                }
            ],
            "Title": "aria Qui Sedes from b minor Mass (BWV232)",
            "Genre": "alto, oboe d'amore + strings",
            "Key": "b",
            "Edition": "modern Gatineau (partiture)",
            "Editor": [
                {
                    "name": "Michel Rondeau (partiture)"
                }
            ],
            "Voices": [
                {
                    "name": "oboe d'amore I"
                },
                {},
                {
                    "name": "violino II"
                },
                {
                    "name": "viola"
                }
            ],
            "Partiture": "yes"
        },
        {
            "Print Number": 858,
            "Composer": [
                {
                    "name": "Bach, Johann Sebastian",
                    "born": 1685,
                    "died": 1750
                }
            ],
            "Title": "Nimm, was dein ist, und gehe hin BWV144",
            "Genre": "cantate",
            "Key": "d",
            "Edition": "bachsoboe.de",
            "Editor": [
                {
                    "name": "Markus Müller"
                }
            ],
            "Voices": [
                {
                    "name": "oboe d'amore (incomplete)"
                }
            ],
            "Partiture": "no"
        },
        {
            "Print Number": 889,
            "Composer": [
                {
                    "name": "Bach, Johann Sebastian",
                    "born": 1685,
                    "died": 1750
                }
            ],
            "Title": "Kommt eilet und laufet, BWV249, Easter Oratorio",
            "Genre": "orchestra & choir",
            "Key": "D",
            "Voices": [
                {
                    "name": "oboe and oboe d'amore I"
                },
                {
                    "name": "oboe II"
                }
            ],
            "Partiture": "no"
        },
        {
            "Print Number": 890,
            "Composer": [
                {
                    "name": "Bach, Johann Sebastian",
                    "born": 1685,
                    "died": 1750
                }
            ],
            "Title": "Magnificat BWV243",
            "Genre": "orchestra & choir",
            "Key": "D",
            "Editor": [
                {
                    "name": "Calebe Barros"
                }
            ],
            "Voices": [
                {},
                {
                    "name": "oboe and oboe'damore II"
                }
            ],
            "Partiture": "no"
        }
    ],
    "Bach, Carl Philip Emanuel": [
        {
            "Print Number": 26,
            "Composer": [
                {
                    "name": "Bach, Carl Philip Emanuel"
                }
            ],
            "Title": "Sonata for oboe and continuo (Hoboe Solo)",
            "Key": "g",
            "Edition": "manuscript",
            "Voices": [
                {
                    "name": "oboe",
                    "range": "d1--d3"
                },
                {
                    "name": "continuo, bass not-numbered"
                }
            ],
            "Partiture": "yes",
            "Incipit": "treble 4/4 d'8 | bes'8 fis,8 g4~g8 b8 c4 |"
        },
        {
            "Print Number": 372,
            "Composer": [
                {
                    "name": "Bach, Carl Philip Emanuel"
                }
            ],
            "Title": "Duetto",
            "Genre": "duo flauto and violin senza bass",
            "Key": "e",
            "Voices": [
                {}
            ],
            "Partiture": "yes"
        },
        {
            "Print Number": 601,
            "Composer": [
                {
                    "name": "Bach, Carl Philip Emanuel"
                }
            ],
            "Title": "Konzert B dur für Oboe mit Streichorchester und Cembalo",
            "Genre": "oboe concerto",
            "Key": "Bes",
            "Edition": "F. E. C. Leuckart",
            "Editor": [
                {
                    "name": "Oskar Kaul"
                }
            ],
            "Voices": [
                {
                    "name": "oboe and piano reduction"
                }
            ],
            "Partiture": "no"
        }
    ],
    "Bach J S": [
        {
            "Print Number": 82,
            "Composer": [
                {
                    "name": "Bach J S"
                }
            ],
            "Title": "Cantate BWV82 Ich habe genug",
            "Voices": [
                {}
            ],
            "Partiture": "no"
        }
    ],
    "Bach, Johann Christian": [
        {
            "Print Number": 141,
            "Composer": [
                {
                    "name": "Bach, Johann Christian"
                }
            ],
            "Title": "Quintett in D op. 11/6",
            "Genre": "quintet for traverso, oboe, violin, viola, cello and continuo",
            "Key": "D",
            "Edition": "Nagels Verlag",
            "Voices": [
                {
                    "name": "oboe"
                }
            ],
            "Partiture": "yes"
        },
        {
            "Print Number": 226,
            "Composer": [
                {
                    "name": "Bach, Johann Christian"
                }
            ],
            "Title": "Quintett op. 22 no. 1",
            "Genre": "quintet for traverso, oboe, violin, cello, continuo",
            "Key": "D",
            "Edition": "Amadeus Verlag",
            "Voices": [
                {
                    "name": "oboe"
                }
            ],
            "Partiture": "no"
        },
        {
            "Print Number": 305,
            "Composer": [
                {
                    "name": "Bach, Johann Christian"
                }
            ],
            "Title": "Six Quintetto op. 11",
            "Genre": "quintett for traverso, oboe, violin, viola and continuo",
            "Edition": "Hummel",
            "Voices": [
                {
                    "name": "oboe"
                }
            ],
            "Partiture": "no"
        },
        {
            "Print Number": 523,
            "Composer": [
                {
                    "name": "Bach, Johann Christian"
                }
            ],
            "Title": "Concerto in F no. 2",
            "Genre": "oboe concerto",
            "Key": "F",
            "Edition": "Nova Music",
            "Voices": [
                {
                    "name": "oboe"
                }
            ],
            "Partiture": "no"
        },
        {
            "Print Number": 554,
            "Composer": [
                {
                    "name": "Bach, Johann Christian"
                }
            ],
            "Title": "Quintett D major op 22/1",
            "Genre": "quintett for traverso, oboe, violin, cello and harpsichord obligato",
            "Key": "D",
            "Edition": "Bärenreiter",
            "Editor": [
                {
                    "name": "Rolf Ermeler"
                },
                {
                    "name": "continuo: Walter Kraft"
                }
            ],
            "Voices": [
                {}
            ],
            "Partiture": "yes"
        },
        {
            "Print Number": 555,
            "Composer": [
                {
                    "name": "Bach, Johann Christian"
                }
            ],
            "Title": "Quintetto I op. 22/1",
            "Genre": "quintett for traverso, oboe, violin, cello and harsichord obligato",
            "Key": "D",
            "Edition": "facsimile",
            "Voices": [
                {
                    "name": "oboe"
                }
            ],
            "Partiture": "no"
        }
    ],
    "Bach, Carl Philipp Emanuel": [
        {
            "Print Number": 386,
            "Composer": [
                {
                    "name": "Bach, Carl Philipp Emanuel",
                    "born": 1714,
                    "died": 1788
                }
            ],
            "Title": "Symphony I, Wq 183/I",
            "Genre": "orchestra",
            "Key": "D",
            "Edition": "Packard Humanities Institute",
            "Voices": [
                {},
                {
                    "name": "oboe 2"
                }
            ],
            "Partiture": "no"
        },
        {
            "Print Number": 387,
            "Composer": [
                {
                    "name": "Bach, Carl Philipp Emanuel",
                    "born": 1714,
                    "died": 1788
                }
            ],
            "Title": "Symphony in e minor, Wq 178",
            "Genre": "orchestra",
            "Key": "e",
            "Edition": "Packard Humanities Institute",
            "Voices": [
                {},
                {
                    "name": "oboe 2"
                }
            ],
            "Partiture": "no"
        },
        {
            "Print Number": 433,
            "Composer": [
                {
                    "name": "Bach, Carl Philipp Emanuel",
                    "born": 1714,
                    "died": 1788
                }
            ],
            "Title": "Fantasia and Arioso",
            "Genre": "piano",
            "Key": "d, C",
            "Edition": "facsimile",
            "Voices": [
                {}
            ],
            "Partiture": "no"
        },
        {
            "Print Number": 629,
            "Composer": [
                {
                    "name": "Bach, Carl Philipp Emanuel",
                    "born": 1714,
                    "died": 1788
                }
            ],
            "Title": "Minuetto I & II from Kurze und leichte Clavierstucke",
            "Genre": "piano",
            "Key": "F; f",
            "Composition Year": 1768,
            "Edition": "facsimile",
            "Voices": [
                {}
            ],
            "Partiture": "yes"
        },
        {
            "Print Number": 633,
            "Composer": [
                {
                    "name": "Bach, Carl Philipp Emanuel",
                    "born": 1714,
                    "died": 1788
                }
            ],
            "Title": "Minuetto I aus Kurze und leichte Klavierstücke",
            "Genre": "piano",
            "Key": "F",
            "Composition Year": 1768,
            "Edition": "lilypond",
            "Editor": [
                {
                    "name": "M"
                }
            ],
            "Voices": [
                {}
            ],
            "Partiture": "yes"
        },
        {
            "Print Number": 636,
            "Composer": [
                {
                    "name": "Bach, Carl Philipp Emanuel",
                    "born": 1714,
                    "died": 1788
                }
            ],
            "Title": "Marche",
            "Genre": "harpsichord",
            "Key": "D",
            "Edition": "Dominik Riepe",
            "Voices": [
                {}
            ],
            "Partiture": "yes"
        },
        {
            "Print Number": 678,
            "Composer": [
                {
                    "name": "Bach, Carl Philipp Emanuel",
                    "born": 1714,
                    "died": 1788
                }
            ],
            "Title": "Polonaise BWV Anh. 125",
            "Genre": "piano",
            "Key": "g",
            "Voices": [
                {}
            ],
            "Partiture": "no"
        }
    ],
    "Fahrbach, Joseph": [
        {
            "Print Number": 439,
            "Composer": [
                {
                    "name": "Fahrbach, Joseph"
                }
            ],
            "Title": "Wiener Fagott Schule (incomplete)",
            "Genre": "bassoon etudes",
            "Voices": [
                {}
            ],
            "Partiture": "no"
        }
    ],
    "Dettelbach, Pater Gaudentius": [
        {
            "Print Number": 515,
            "Composer": [
                {
                    "name": "Dettelbach, Pater Gaudentius"
                }
            ],
            "Title": "Te deum",
            "Key": "C",
            "Voices": [
                {
                    "name": "clarina 2"
                }
            ],
            "Partiture": "no"
        }
    ],
    "Offenbach, Jacques": [
        {
            "Print Number": 720,
            "Composer": [
                {
                    "name": "Offenbach, Jacques"
                }
            ],
            "Title": "Waltz from operette La belle Hélène",
            "Genre": "piano",
            "Key": "F",
            "Voices": [
                {}
            ],
            "Partiture": "yes"
        }
    ],
    "Bach, Joseph Sebastian": [
        {
            "Print Number": 872,
            "Composer": [
                {
                    "name": "Bach, Joseph Sebastian"
                }
            ],
            "Title": "Sinfonia from BWV21",
            "Genre": "cantate",
            "Key": "d",
            "Edition": "modern",
            "Voices": [
                {
                    "name": "oboe"
                }
            ],
            "Partiture": "no"
        }
    ]
}
